module gitlab.com/codeprac/pm

go 1.17

require (
	github.com/go-git/go-git/v5 v5.4.2
	github.com/spf13/cobra v1.2.1
	github.com/usvc/go-config v0.4.1
	gitlab.com/codeprac/modules/go/log v0.1.0
	gitlab.com/zephinzer/go-devops v0.2.6
	gopkg.in/yaml.v2 v2.4.0
)

require (
	github.com/Microsoft/go-winio v0.4.16 // indirect
	github.com/ProtonMail/go-crypto v0.0.0-20210428141323-04723f9f07d7 // indirect
	github.com/acomagu/bufpipe v1.0.3 // indirect
	github.com/emirpasic/gods v1.12.0 // indirect
	github.com/fsnotify/fsnotify v1.4.9 // indirect
	github.com/go-git/gcfg v1.5.0 // indirect
	github.com/go-git/go-billy/v5 v5.3.1 // indirect
	github.com/go-git/go-git v4.7.0+incompatible // indirect
	github.com/hashicorp/hcl v1.0.0 // indirect
	github.com/imdario/mergo v0.3.12 // indirect
	github.com/inconshreveable/mousetrap v1.0.0 // indirect
	github.com/jbenet/go-context v0.0.0-20150711004518-d14ea06fba99 // indirect
	github.com/kevinburke/ssh_config v0.0.0-20201106050909-4977a11b4351 // indirect
	github.com/magiconair/properties v1.8.5 // indirect
	github.com/mitchellh/go-homedir v1.1.0 // indirect
	github.com/mitchellh/mapstructure v1.4.1 // indirect
	github.com/pelletier/go-toml v1.9.3 // indirect
	github.com/sergi/go-diff v1.2.0 // indirect
	github.com/sirupsen/logrus v1.8.1 // indirect
	github.com/spf13/afero v1.6.0 // indirect
	github.com/spf13/cast v1.3.1 // indirect
	github.com/spf13/jwalterweatherman v1.1.0 // indirect
	github.com/spf13/pflag v1.0.5 // indirect
	github.com/spf13/viper v1.8.1 // indirect
	github.com/src-d/gcfg v1.4.0 // indirect
	github.com/subosito/gotenv v1.2.0 // indirect
	github.com/xanzy/ssh-agent v0.3.0 // indirect
	github.com/zephinzer/go-strcase v1.0.1 // indirect
	golang.org/x/crypto v0.0.0-20210915214749-c084706c2272 // indirect
	golang.org/x/net v0.0.0-20210405180319-a5a99cb37ef4 // indirect
	golang.org/x/sys v0.0.0-20210820121016-41cdb8703e55 // indirect
	golang.org/x/text v0.3.5 // indirect
	gopkg.in/ini.v1 v1.62.0 // indirect
	gopkg.in/src-d/go-billy.v4 v4.3.2 // indirect
	gopkg.in/src-d/go-git.v4 v4.13.1 // indirect
	gopkg.in/warnings.v0 v0.1.2 // indirect
)
